<svg xmlns="http://www.w3.org/2000/svg" xmlns:xlink="http://www.w3.org/1999/xlink" width="25" height="25">
  <defs>
    <path id="a" d="M18.64 9.247a.842.842 0 00-1.19 0l-4.507 4.506-4.505-4.506a.842.842 0 10-1.192 1.19l5.1 5.1a.838.838 0 001.191.002l5.103-5.102a.838.838 0 000-1.19"/>
  </defs>
  <use fill="#9C3" fill-rule="evenodd" xlink:href="#a"/>
</svg>
